<?xml version="1.0" encoding="utf-8"?>
<!-- Generator: Adobe Illustrator 23.0.3, SVG Export Plug-In . SVG Version: 6.00 Build 0)  -->
<svg version="1.1" id="Layer_1" xmlns="http://www.w3.org/2000/svg" xmlns:xlink="http://www.w3.org/1999/xlink" x="0px" y="0px"
	 viewBox="0 0 20 20" style="enable-background:new 0 0 20 20;" xml:space="preserve">
<style type="text/css">
	.st0{fill-rule:evenodd;clip-rule:evenodd;}
</style>
<path class="st0" d="M0,10C0,4.5,4.5,0,10,0s10,4.5,10,10s-4.5,10-10,10S0,15.5,0,10z M18,10c0-4.4-3.6-8-8-8s-8,3.6-8,8s3.6,8,8,8
	S18,14.4,18,10z"/>
<path class="st0" d="M10.5,4V2.9C10.7,3,10.9,3,11.1,3c0.2,0,0.4,0,0.5,0.1l-0.2,1c-0.1,0-0.3,0-0.5,0C10.8,4,10.6,4,10.5,4z
	 M7.6,3.4c0.3-0.1,0.6-0.2,0.9-0.3l0.2,1L7.8,4.4L7.4,3.5C7.5,3.5,7.5,3.5,7.6,3.4L7.6,3.4z M13.3,3.8L10.2,8c0,0-0.1,0-0.1,0
	c0,0-0.1,0-0.1,0c-1.1,0-2,0.9-2,2c0,1.1,0.9,2,2,2c1.1,0,2-0.9,2-2c0-0.3-0.1-0.5-0.2-0.8c0,0,0,0,0,0c0,0,0,0,0,0L14.9,5L13.3,3.8
	z M4.9,5.2L4.9,5.2C5.1,5,5.4,4.8,5.6,4.6l0.6,0.8C6.1,5.5,6,5.6,5.8,5.7C5.7,5.8,5.6,5.9,5.5,6L4.8,5.3C4.9,5.3,4.9,5.2,4.9,5.2z
	 M15.9,6.3l-0.8,0.5c0.2,0.3,0.3,0.5,0.4,0.8l0.9-0.4c-0.1-0.3-0.3-0.5-0.4-0.8C16,6.4,15.9,6.4,15.9,6.3z M3.4,7.6L3.4,7.6
	c0.1-0.2,0.2-0.3,0.2-0.5l0.9,0.4L4.2,8.4l-1-0.3C3.2,7.9,3.3,7.8,3.4,7.6L3.4,7.6z M17,9.3l-1,0.1V10v0.3h1V10V9.3z M3,10.8
	c0-0.2,0-0.4,0-0.6h1c0,0.1,0,0.3,0,0.5c0,0.2,0,0.3,0,0.5l-1,0.2C3.1,11.1,3.1,10.9,3,10.8z M15.5,12.5L15.5,12.5L15.5,12.5
	c-0.1,0.2-0.2,0.3-0.3,0.5l0.9,0.5c0.1-0.2,0.2-0.4,0.3-0.6c0.1-0.1,0.1-0.3,0.2-0.4l-0.9-0.3C15.6,12.2,15.5,12.3,15.5,12.5z
	 M3.9,13.4l0.8-0.5c0.1,0.3,0.3,0.6,0.5,0.8l-0.8,0.6C4.2,14,4,13.7,3.9,13.4z"/>
</svg>
