<?xml version="1.0" encoding="utf-8"?>
<!-- Generator: Adobe Illustrator 23.0.3, SVG Export Plug-In . SVG Version: 6.00 Build 0)  -->
<svg version="1.1" id="Layer_1" xmlns="http://www.w3.org/2000/svg" xmlns:xlink="http://www.w3.org/1999/xlink" x="0px" y="0px"
	 viewBox="0 0 24 21" style="enable-background:new 0 0 24 21;" xml:space="preserve">
<style type="text/css">
	.st0{fill-rule:evenodd;clip-rule:evenodd;}
</style>
<path class="st0" d="M6.3,0.3L3,3.6L1.7,2.3L0.3,3.7l2,2L3,6.4l0.7-0.7l4-4L6.3,0.3z M6.3,7.3L3,10.6L1.7,9.3l-1.4,1.4l2,2L3,13.4
	l0.7-0.7l4-4L6.3,7.3z M3,17.6l3.3-3.3l1.4,1.4l-4,4L3,20.4l-0.7-0.7l-2-2l1.4-1.4L3,17.6z"/>
<path class="st0" d="M11,2v2h13V2H11z M11,9v2h13V9H11z M11,18v-2h13v2H11z"/>
</svg>
