<?xml version="1.0" encoding="utf-8"?>
<!-- Generator: Adobe Illustrator 23.0.3, SVG Export Plug-In . SVG Version: 6.00 Build 0)  -->
<svg version="1.1" id="Layer_1" xmlns="http://www.w3.org/2000/svg" xmlns:xlink="http://www.w3.org/1999/xlink" x="0px" y="0px"
	 viewBox="0 0 24 22" style="enable-background:new 0 0 24 22;" xml:space="preserve">
<style type="text/css">
	.st0{fill-rule:evenodd;clip-rule:evenodd;}
</style>
<path class="st0" d="M3.3,1.3C5.4,0.7,8.4,0,12,0c3.6,0,6.6,0.7,8.7,1.3c2,0.6,3.3,2.4,3.3,4.4v2.6c0,1-0.8,1.8-1.8,1.8h-3.7
	c-1,0-1.8-0.8-1.8-1.8V5.9c0,0,0,0-0.1,0c-0.1-0.1-0.2-0.1-0.7-0.2c-0.8-0.2-2.1-0.5-3.9-0.5S8.9,5.4,8.1,5.6
	C7.7,5.8,7.6,5.8,7.4,5.9c0,0,0,0-0.1,0v2.4c0,1-0.8,1.8-1.8,1.8H1.8c-1,0-1.8-0.8-1.8-1.8V5.7C0,3.7,1.4,1.9,3.3,1.3z M20.2,3
	c-1.9-0.6-4.8-1.2-8.2-1.2C8.6,1.8,5.8,2.5,3.8,3c-1.2,0.4-2,1.4-2,2.7v2.6h3.7v-3V4.7L6,4.5c0,0,0.6-0.3,1.6-0.6
	c1-0.3,2.5-0.5,4.4-0.5s3.4,0.3,4.4,0.5c1,0.3,1.6,0.6,1.6,0.6l0.5,0.3v0.5v3h3.7V5.7C22.2,4.5,21.4,3.4,20.2,3z"/>
<path class="st0" d="M4.6,13.8c0-1,0.8-1.8,1.8-1.8s1.8,0.8,1.8,1.8s-0.8,1.8-1.8,1.8S4.6,14.9,4.6,13.8z M10.2,13.8
	c0-1,0.8-1.8,1.8-1.8s1.8,0.8,1.8,1.8S13,15.7,12,15.7S10.2,14.9,10.2,13.8z M17.5,12c-1,0-1.8,0.8-1.8,1.8s0.8,1.8,1.8,1.8
	s1.8-0.8,1.8-1.8S18.6,12,17.5,12z M4.6,19.4c0-1,0.8-1.8,1.8-1.8s1.8,0.8,1.8,1.8s-0.8,1.8-1.8,1.8S4.6,20.4,4.6,19.4z M12,17.5
	c-1,0-1.8,0.8-1.8,1.8s0.8,1.8,1.8,1.8s1.8-0.8,1.8-1.8S13,17.5,12,17.5z M15.7,19.4c0-1,0.8-1.8,1.8-1.8s1.8,0.8,1.8,1.8
	s-0.8,1.8-1.8,1.8S15.7,20.4,15.7,19.4z"/>
</svg>
